****************************************************************************************************************************************************************
***                                WIDEN YOUR WINDOW TO 160 CHARACTERS.  Use 'enscript -r -fCourier9' to print this document                                 ***
****************************************************************************************************************************************************************

------------------------------------------------------------------ PETSc Performance Summary: ------------------------------------------------------------------

../solve_performance on a arch-cdbfgs-async-opt named x3005c0s25b0n0 with 1 processor, by tisaac Tue Oct  3 18:26:49 2023
Using Petsc Development GIT revision: v3.19.5-1157-g1d79ed5e6cd  GIT Date: 2023-09-29 21:40:51 -0400

                         Max       Max/Min     Avg       Total
Time (sec):           6.223e+00     1.000   6.223e+00
Objects:              0.000e+00     0.000   0.000e+00
Flops:                3.824e+10     1.000   3.824e+10  3.824e+10
Flops/sec:            6.146e+09     1.000   6.146e+09  6.146e+09
Memory (bytes):       5.445e+08     1.000   5.445e+08  5.445e+08
MPI Msg Count:        0.000e+00     0.000   0.000e+00  0.000e+00
MPI Msg Len (bytes):  0.000e+00     0.000   0.000e+00  0.000e+00
MPI Reductions:       0.000e+00     0.000

Flop counting convention: 1 flop = 1 real number operation of type (multiply/divide/add/subtract)
                            e.g., VecAXPY() for real vectors of length N --> 2N flops
                            and VecAXPY() for complex vectors of length N --> 8N flops

Summary of Stages:   ----- Time ------  ----- Flop ------  --- Messages ---  -- Message Lengths --  -- Reductions --
                        Avg     %Total     Avg     %Total    Count   %Total     Avg         %Total    Count   %Total
 2: LMVM MatSolve Loop: 2.6166e+00  42.0%  1.7200e+10  45.0%  0.000e+00   0.0%  0.000e+00        0.0%  0.000e+00   0.0%

------------------------------------------------------------------------------------------------------------------------
See the 'Profiling' chapter of the users' manual for details on interpreting output.
Phase summary info:
   Count: number of times phase was executed
   Time and Flop: Max - maximum over all processors
                  Ratio - ratio of maximum to minimum over all processors
   Mess: number of messages sent
   AvgLen: average message length (bytes)
   Reduct: number of global reductions
   Global: entire computation
   Stage: stages of a computation. Set stages with PetscLogStagePush() and PetscLogStagePop().
      %T - percent time in this phase         %F - percent flop in this phase
      %M - percent messages in this phase     %L - percent message lengths in this phase
      %R - percent reductions in this phase
   Total Mflop/s: 10e-6 * (sum of flop over all processors)/(max time over all processors)
   GPU Mflop/s: 10e-6 * (sum of flop on GPU over all processors)/(max GPU time over all processors)
   CpuToGpu Count: total number of CPU to GPU copies per processor
   CpuToGpu Size (Mbytes): 10e-6 * (total size of CPU to GPU copies per processor)
   GpuToCpu Count: total number of GPU to CPU copies per processor
   GpuToCpu Size (Mbytes): 10e-6 * (total size of GPU to CPU copies per processor)
   GPU %F: percent flops on GPU in this event
------------------------------------------------------------------------------------------------------------------------
Event                Count      Time (sec)     Flop                              --- Global ---  --- Stage ----  Total   GPU    - CpuToGpu -   - GpuToCpu - GPU
                   Max Ratio  Max     Ratio   Max  Ratio  Mess   AvgLen  Reduct  %T %F %M %L %R  %T %F %M %L %R Mflop/s Mflop/s Count   Size   Count   Size  %F
---------------------------------------------------------------------------------------------------------------------------------------------------------------

--- Event Stage 2: LMVM MatSolve Loop

VecMDot              100 1.0 1.1093e-01 1.0 6.00e+08 1.0 0.0e+00 0.0e+00 0.0e+00  2  2  0  0  0   4  3  0  0  0  5409       0      0 0.00e+00    0 0.00e+00  0
VecScale             200 1.0 6.9310e-05 1.0 4.00e+03 1.0 0.0e+00 0.0e+00 0.0e+00  0  0  0  0  0   0  0  0  0  0    58       0      0 0.00e+00    0 0.00e+00  0
VecCopy              700 1.0 3.1468e-01 1.0 0.00e+00 0.0 0.0e+00 0.0e+00 0.0e+00  5  0  0  0  0  12  0  0  0  0     0       0      0 0.00e+00    0 0.00e+00  0
VecAXPY              500 1.0 1.6471e-01 1.0 4.00e+08 1.0 0.0e+00 0.0e+00 0.0e+00  3  1  0  0  0   6  2  0  0  0  2429       0      0 0.00e+00    0 0.00e+00  0
VecAYPX              200 1.0 7.8896e-02 1.0 2.00e+08 1.0 0.0e+00 0.0e+00 0.0e+00  1  1  0  0  0   3  1  0  0  0  2535       0      0 0.00e+00    0 0.00e+00  0
VecPointwiseMult     100 1.0 6.0191e-05 1.0 2.00e+03 1.0 0.0e+00 0.0e+00 0.0e+00  0  0  0  0  0   0  0  0  0  0    33       0      0 0.00e+00    0 0.00e+00  0
MatMultAdd           200 1.0 1.0017e+00 1.0 8.00e+09 1.0 0.0e+00 0.0e+00 0.0e+00 16 21  0  0  0  38 47  0  0  0  7986       0      0 0.00e+00    0 0.00e+00  0
MatMultTranspose     100 1.0 5.4357e-01 1.0 4.00e+09 1.0 0.0e+00 0.0e+00 0.0e+00  9 10  0  0  0  21 23  0  0  0  7359       0      0 0.00e+00    0 0.00e+00  0
MatMultTrAdd         100 1.0 4.5608e-01 1.0 4.00e+09 1.0 0.0e+00 0.0e+00 0.0e+00  7 10  0  0  0  17 23  0  0  0  8770       0      0 0.00e+00    0 0.00e+00  0
MatSolve             100 1.0 1.5731e+00 1.0 1.20e+10 1.0 0.0e+00 0.0e+00 0.0e+00 25 31  0  0  0  60 70  0  0  0  7629       0      0 0.00e+00    0 0.00e+00  0
MatLMVMUpdate        100 1.0 9.3561e-01 1.0 4.80e+09 1.0 0.0e+00 0.0e+00 0.0e+00 15 13  0  0  0  36 28  0  0  0  5130       0      0 0.00e+00    0 0.00e+00  0
MatLMVMJ0Inv         100 1.0 5.7043e-02 1.0 0.00e+00 0.0 0.0e+00 0.0e+00 0.0e+00  1  0  0  0  0   2  0  0  0  0     0       0      0 0.00e+00    0 0.00e+00  0
CDBFGSMatSolve       100 1.0 1.5730e+00 1.0 1.20e+10 1.0 0.0e+00 0.0e+00 0.0e+00 25 31  0  0  0  60 70  0  0  0  7629       0      0 0.00e+00    0 0.00e+00  0
CDBFGSJ0Inv          100 1.0 5.7123e-02 1.0 0.00e+00 0.0 0.0e+00 0.0e+00 0.0e+00  1  0  0  0  0   2  0  0  0  0     0       0      0 0.00e+00    0 0.00e+00  0
---------------------------------------------------------------------------------------------------------------------------------------------------------------

Object Type          Creations   Destructions. Reports information only for process 0.

--- Event Stage 0: Main Stage

           Container     4              4
              Vector    45             45
       Krylov Solver     4              4
              Matrix     7              7
      Preconditioner     4              4
         PetscRandom     1              1
  PetscDeviceContext     1              0
              Viewer     1              1
              Viewer     1              0

--- Event Stage 1: PCMPI


--- Event Stage 2: LMVM MatSolve Loop

========================================================================================================================
Average time to get PetscTime(): 3.11e-08
#PETSc Option Table entries:
-epochs 1 # (source: command line)
-iters 100 # (source: command line)
-log_view :/home/tisaac/Projects/bfgs_profiling/polaris/solve_performance_host_cdbfgs_inplace_dim_1000000_hist_20_epochs_1_iters_100.log # (source: command line)
-mat_lbfgs_type cd_inplace # (source: command line)
-mat_lmvm_hist_size 20 # (source: command line)
-mat_lmvm_scale_type none # (source: command line)
-mat_type lmvmcdbfgs # (source: command line)
-n 1000000 # (source: command line)
-random_type random123 # (source: command line)
-root_device_context_stream_type default_blocking # (source: command line)
-vec_type standard # (source: command line)
#End of PETSc Option Table entries
Compiled without FORTRAN kernels
Compiled with full precision matrices (default)
sizeof(short) 2 sizeof(int) 4 sizeof(long) 8 sizeof(void*) 8 sizeof(PetscScalar) 8 sizeof(PetscInt) 4
Configure options: --download-random123 --download-sowing --with-cc=cc --with-cuda --with-cuda-arch=80 --with-cudac=nvcc --with-cxx=CC --with-debugging=0 --with-fc=ftn --with-mpiexec="mpiexec --cpu-bind list:24:16:8:0:28:20:12:4" COPTFLAGS="-O3 -march=native -ffp-contract=fast" CXXOPTFLAGS="-O3 -march=native -ffp-contract=fast" PETSC_ARCH=arch-cdbfgs-async-opt --force
-----------------------------------------
Libraries compiled on 2023-09-30 02:38:30 on x3005c0s7b1n0 
Machine characteristics: Linux-5.3.18-150300.59.115-default-x86_64-with-glibc2.3.4
Using PETSc directory: /home/tisaac/Projects/petsc
Using PETSc arch: arch-cdbfgs-async-opt
-----------------------------------------

Using C compiler: cc  -fPIC -Wall -Wwrite-strings -Wno-unknown-pragmas -Wno-lto-type-mismatch -Wno-stringop-overflow -fstack-protector -fvisibility=hidden -O3 -march=native -ffp-contract=fast  
Using Fortran compiler: ftn  -fPIC -Wall -ffree-line-length-none -ffree-line-length-0 -Wno-lto-type-mismatch -Wno-unused-dummy-argument -g -O    
-----------------------------------------

Using include paths: -I/home/tisaac/Projects/petsc/include -I/home/tisaac/Projects/petsc/arch-cdbfgs-async-opt/include -I/soft/compilers/cudatoolkit/cuda-11.8.0/include
-----------------------------------------

Using C linker: cc
Using Fortran linker: ftn
Using libraries: -Wl,-rpath,/home/tisaac/Projects/petsc/arch-cdbfgs-async-opt/lib -L/home/tisaac/Projects/petsc/arch-cdbfgs-async-opt/lib -lpetsc -Wl,-rpath,/soft/compilers/cudatoolkit/cuda-11.8.0/lib64 -L/soft/compilers/cudatoolkit/cuda-11.8.0/lib64 -L/soft/compilers/cudatoolkit/cuda-11.8.0/lib64/stubs -Wl,-rpath,/opt/cray/pe/mpich/8.1.16/ofi/gnu/9.1/lib -L/opt/cray/pe/mpich/8.1.16/ofi/gnu/9.1/lib -Wl,-rpath,/opt/cray/pe/mpich/8.1.16/gtl/lib -L/opt/cray/pe/mpich/8.1.16/gtl/lib -Wl,-rpath,/opt/cray/pe/libsci/21.08.1.2/GNU/9.1/x86_64/lib -L/opt/cray/pe/libsci/21.08.1.2/GNU/9.1/x86_64/lib -Wl,-rpath,/opt/cray/pe/pals/1.1.7/lib -L/opt/cray/pe/pals/1.1.7/lib -Wl,-rpath,/opt/cray/pe/pmi/6.1.2/lib -L/opt/cray/pe/pmi/6.1.2/lib -Wl,-rpath,/opt/cray/pe/dsmml/0.2.2/dsmml/lib -L/opt/cray/pe/dsmml/0.2.2/dsmml/lib -Wl,-rpath,/opt/cray/pe/gcc/11.2.0/snos/lib/gcc/x86_64-suse-linux/11.2.0 -L/opt/cray/pe/gcc/11.2.0/snos/lib/gcc/x86_64-suse-linux/11.2.0 -Wl,-rpath,/opt/cray/pe/gcc/11.2.0/snos/lib64 -L/opt/cray/pe/gcc/11.2.0/snos/lib64 -Wl,-rpath,/opt/cray/pe/gcc/11.2.0/snos/lib -L/opt/cray/pe/gcc/11.2.0/snos/lib -lcudart -lnvToolsExt -lcufft -lcublas -lcusparse -lcusolver -lcurand -lcuda -lX11 -ldl -lmpi_gtl_cuda -lgfortran -lm -lsci_gnu_82_mpi -lsci_gnu_82 -lpals -lpmi -lpmi2 -lmpifort_gnu_91 -lmpi_gnu_91 -ldsmml -lgfortran -lquadmath -lpthread -lm -lgcc_s -lstdc++ -lquadmath
-----------------------------------------

bfgs_profiling PETSc commit: v3.19.5-1158-g652d2d27ee7
