****************************************************************************************************************************************************************
***                                WIDEN YOUR WINDOW TO 160 CHARACTERS.  Use 'enscript -r -fCourier9' to print this document                                 ***
****************************************************************************************************************************************************************

------------------------------------------------------------------ PETSc Performance Summary: ------------------------------------------------------------------

../solve_performance on a arch-cdbfgs-async-opt named x3005c0s25b0n0 with 1 processor, by tisaac Tue Oct  3 18:21:26 2023
Using Petsc Development GIT revision: v3.19.5-1157-g1d79ed5e6cd  GIT Date: 2023-09-29 21:40:51 -0400

                         Max       Max/Min     Avg       Total
Time (sec):           4.077e-01     1.000   4.077e-01
Objects:              0.000e+00     0.000   0.000e+00
Flops:                1.952e+09     1.000   1.952e+09  1.952e+09
Flops/sec:            4.789e+09     1.000   4.789e+09  4.789e+09
Memory (bytes):       3.096e+07     1.000   3.096e+07  3.096e+07
MPI Msg Count:        0.000e+00     0.000   0.000e+00  0.000e+00
MPI Msg Len (bytes):  0.000e+00     0.000   0.000e+00  0.000e+00
MPI Reductions:       0.000e+00     0.000

Flop counting convention: 1 flop = 1 real number operation of type (multiply/divide/add/subtract)
                            e.g., VecAXPY() for real vectors of length N --> 2N flops
                            and VecAXPY() for complex vectors of length N --> 8N flops

Summary of Stages:   ----- Time ------  ----- Flop ------  --- Messages ---  -- Message Lengths --  -- Reductions --
                        Avg     %Total     Avg     %Total    Count   %Total     Avg         %Total    Count   %Total
 2: LMVM MatSolve Loop: 8.7280e-02  21.4%  9.2002e+08  47.1%  0.000e+00   0.0%  0.000e+00        0.0%  0.000e+00   0.0%

------------------------------------------------------------------------------------------------------------------------
See the 'Profiling' chapter of the users' manual for details on interpreting output.
Phase summary info:
   Count: number of times phase was executed
   Time and Flop: Max - maximum over all processors
                  Ratio - ratio of maximum to minimum over all processors
   Mess: number of messages sent
   AvgLen: average message length (bytes)
   Reduct: number of global reductions
   Global: entire computation
   Stage: stages of a computation. Set stages with PetscLogStagePush() and PetscLogStagePop().
      %T - percent time in this phase         %F - percent flop in this phase
      %M - percent messages in this phase     %L - percent message lengths in this phase
      %R - percent reductions in this phase
   Total Mflop/s: 10e-6 * (sum of flop over all processors)/(max time over all processors)
   GPU Mflop/s: 10e-6 * (sum of flop on GPU over all processors)/(max GPU time over all processors)
   CpuToGpu Count: total number of CPU to GPU copies per processor
   CpuToGpu Size (Mbytes): 10e-6 * (total size of CPU to GPU copies per processor)
   GpuToCpu Count: total number of GPU to CPU copies per processor
   GpuToCpu Size (Mbytes): 10e-6 * (total size of GPU to CPU copies per processor)
   GPU %F: percent flops on GPU in this event
------------------------------------------------------------------------------------------------------------------------
Event                Count      Time (sec)     Flop                              --- Global ---  --- Stage ----  Total   GPU    - CpuToGpu -   - GpuToCpu - GPU
                   Max Ratio  Max     Ratio   Max  Ratio  Mess   AvgLen  Reduct  %T %F %M %L %R  %T %F %M %L %R Mflop/s Mflop/s Count   Size   Count   Size  %F
---------------------------------------------------------------------------------------------------------------------------------------------------------------

--- Event Stage 2: LMVM MatSolve Loop

VecMDot              100 1.0 1.0953e-02 1.0 6.00e+07 1.0 0.0e+00 0.0e+00 0.0e+00  3  3  0  0  0  13  7  0  0  0  5478       0      0 0.00e+00    0 0.00e+00  0
VecScale             200 1.0 3.0894e-05 1.0 2.00e+03 1.0 0.0e+00 0.0e+00 0.0e+00  0  0  0  0  0   0  0  0  0  0    65       0      0 0.00e+00    0 0.00e+00  0
VecCopy             1340 1.0 1.2827e-02 1.0 0.00e+00 0.0 0.0e+00 0.0e+00 0.0e+00  3  0  0  0  0  15  0  0  0  0     0       0      0 0.00e+00    0 0.00e+00  0
VecAXPY              500 1.0 6.2794e-03 1.0 4.00e+07 1.0 0.0e+00 0.0e+00 0.0e+00  2  2  0  0  0   7  4  0  0  0  6371       0      0 0.00e+00    0 0.00e+00  0
VecAYPX              200 1.0 4.4002e-03 1.0 2.00e+07 1.0 0.0e+00 0.0e+00 0.0e+00  1  1  0  0  0   5  2  0  0  0  4545       0      0 0.00e+00    0 0.00e+00  0
VecPointwiseMult     100 1.0 1.1065e-05 1.0 1.00e+03 1.0 0.0e+00 0.0e+00 0.0e+00  0  0  0  0  0   0  0  0  0  0    90       0      0 0.00e+00    0 0.00e+00  0
MatMultAdd           200 1.0 2.5938e-02 1.0 4.00e+08 1.0 0.0e+00 0.0e+00 0.0e+00  6 20  0  0  0  30 43  0  0  0 15422       0      0 0.00e+00    0 0.00e+00  0
MatMultTranspose     100 1.0 1.3987e-02 1.0 2.00e+08 1.0 0.0e+00 0.0e+00 0.0e+00  3 10  0  0  0  16 22  0  0  0 14299       0      0 0.00e+00    0 0.00e+00  0
MatMultTrAdd         100 1.0 1.3685e-02 1.0 2.00e+08 1.0 0.0e+00 0.0e+00 0.0e+00  3 10  0  0  0  16 22  0  0  0 14615       0      0 0.00e+00    0 0.00e+00  0
MatSolve             100 1.0 4.4883e-02 1.0 6.00e+08 1.0 0.0e+00 0.0e+00 0.0e+00 11 31  0  0  0  51 65  0  0  0 13369       0      0 0.00e+00    0 0.00e+00  0
MatCopy              200 1.0 2.0866e-04 1.0 0.00e+00 0.0 0.0e+00 0.0e+00 0.0e+00  0  0  0  0  0   0  0  0  0  0     0       0      0 0.00e+00    0 0.00e+00  0
MatAssemblyBegin     200 1.0 1.3198e-05 1.0 0.00e+00 0.0 0.0e+00 0.0e+00 0.0e+00  0  0  0  0  0   0  0  0  0  0     0       0      0 0.00e+00    0 0.00e+00  0
MatAssemblyEnd       200 1.0 1.4817e-05 1.0 0.00e+00 0.0 0.0e+00 0.0e+00 0.0e+00  0  0  0  0  0   0  0  0  0  0     0       0      0 0.00e+00    0 0.00e+00  0
MatLMVMUpdate        100 1.0 3.8259e-02 1.0 2.80e+08 1.0 0.0e+00 0.0e+00 0.0e+00  9 14  0  0  0  44 30  0  0  0  7319       0      0 0.00e+00    0 0.00e+00  0
MatLMVMJ0Inv         100 1.0 2.2345e-03 1.0 0.00e+00 0.0 0.0e+00 0.0e+00 0.0e+00  1  0  0  0  0   3  0  0  0  0     0       0      0 0.00e+00    0 0.00e+00  0
CDBFGSMatSolve       100 1.0 4.4862e-02 1.0 6.00e+08 1.0 0.0e+00 0.0e+00 0.0e+00 11 31  0  0  0  51 65  0  0  0 13375       0      0 0.00e+00    0 0.00e+00  0
CDBFGSJ0Inv          100 1.0 2.2600e-03 1.0 0.00e+00 0.0 0.0e+00 0.0e+00 0.0e+00  1  0  0  0  0   3  0  0  0  0     0       0      0 0.00e+00    0 0.00e+00  0
---------------------------------------------------------------------------------------------------------------------------------------------------------------

Object Type          Creations   Destructions. Reports information only for process 0.

--- Event Stage 0: Main Stage

           Container     4              4
              Vector    47             47
       Krylov Solver     4              4
              Matrix    10             10
      Preconditioner     4              4
         PetscRandom     1              1
  PetscDeviceContext     1              0
              Viewer     1              1
              Viewer     1              0

--- Event Stage 1: PCMPI


--- Event Stage 2: LMVM MatSolve Loop

========================================================================================================================
Average time to get PetscTime(): 3.11e-08
#PETSc Option Table entries:
-epochs 1 # (source: command line)
-iters 100 # (source: command line)
-log_view :/home/tisaac/Projects/bfgs_profiling/polaris/solve_performance_host_cdbfgs_reorder_dim_100000_hist_10_epochs_1_iters_100.log # (source: command line)
-mat_lbfgs_type cd_reorder # (source: command line)
-mat_lmvm_hist_size 10 # (source: command line)
-mat_lmvm_scale_type none # (source: command line)
-mat_type lmvmcdbfgs # (source: command line)
-n 100000 # (source: command line)
-random_type random123 # (source: command line)
-root_device_context_stream_type default_blocking # (source: command line)
-vec_type standard # (source: command line)
#End of PETSc Option Table entries
Compiled without FORTRAN kernels
Compiled with full precision matrices (default)
sizeof(short) 2 sizeof(int) 4 sizeof(long) 8 sizeof(void*) 8 sizeof(PetscScalar) 8 sizeof(PetscInt) 4
Configure options: --download-random123 --download-sowing --with-cc=cc --with-cuda --with-cuda-arch=80 --with-cudac=nvcc --with-cxx=CC --with-debugging=0 --with-fc=ftn --with-mpiexec="mpiexec --cpu-bind list:24:16:8:0:28:20:12:4" COPTFLAGS="-O3 -march=native -ffp-contract=fast" CXXOPTFLAGS="-O3 -march=native -ffp-contract=fast" PETSC_ARCH=arch-cdbfgs-async-opt --force
-----------------------------------------
Libraries compiled on 2023-09-30 02:38:30 on x3005c0s7b1n0 
Machine characteristics: Linux-5.3.18-150300.59.115-default-x86_64-with-glibc2.3.4
Using PETSc directory: /home/tisaac/Projects/petsc
Using PETSc arch: arch-cdbfgs-async-opt
-----------------------------------------

Using C compiler: cc  -fPIC -Wall -Wwrite-strings -Wno-unknown-pragmas -Wno-lto-type-mismatch -Wno-stringop-overflow -fstack-protector -fvisibility=hidden -O3 -march=native -ffp-contract=fast  
Using Fortran compiler: ftn  -fPIC -Wall -ffree-line-length-none -ffree-line-length-0 -Wno-lto-type-mismatch -Wno-unused-dummy-argument -g -O    
-----------------------------------------

Using include paths: -I/home/tisaac/Projects/petsc/include -I/home/tisaac/Projects/petsc/arch-cdbfgs-async-opt/include -I/soft/compilers/cudatoolkit/cuda-11.8.0/include
-----------------------------------------

Using C linker: cc
Using Fortran linker: ftn
Using libraries: -Wl,-rpath,/home/tisaac/Projects/petsc/arch-cdbfgs-async-opt/lib -L/home/tisaac/Projects/petsc/arch-cdbfgs-async-opt/lib -lpetsc -Wl,-rpath,/soft/compilers/cudatoolkit/cuda-11.8.0/lib64 -L/soft/compilers/cudatoolkit/cuda-11.8.0/lib64 -L/soft/compilers/cudatoolkit/cuda-11.8.0/lib64/stubs -Wl,-rpath,/opt/cray/pe/mpich/8.1.16/ofi/gnu/9.1/lib -L/opt/cray/pe/mpich/8.1.16/ofi/gnu/9.1/lib -Wl,-rpath,/opt/cray/pe/mpich/8.1.16/gtl/lib -L/opt/cray/pe/mpich/8.1.16/gtl/lib -Wl,-rpath,/opt/cray/pe/libsci/21.08.1.2/GNU/9.1/x86_64/lib -L/opt/cray/pe/libsci/21.08.1.2/GNU/9.1/x86_64/lib -Wl,-rpath,/opt/cray/pe/pals/1.1.7/lib -L/opt/cray/pe/pals/1.1.7/lib -Wl,-rpath,/opt/cray/pe/pmi/6.1.2/lib -L/opt/cray/pe/pmi/6.1.2/lib -Wl,-rpath,/opt/cray/pe/dsmml/0.2.2/dsmml/lib -L/opt/cray/pe/dsmml/0.2.2/dsmml/lib -Wl,-rpath,/opt/cray/pe/gcc/11.2.0/snos/lib/gcc/x86_64-suse-linux/11.2.0 -L/opt/cray/pe/gcc/11.2.0/snos/lib/gcc/x86_64-suse-linux/11.2.0 -Wl,-rpath,/opt/cray/pe/gcc/11.2.0/snos/lib64 -L/opt/cray/pe/gcc/11.2.0/snos/lib64 -Wl,-rpath,/opt/cray/pe/gcc/11.2.0/snos/lib -L/opt/cray/pe/gcc/11.2.0/snos/lib -lcudart -lnvToolsExt -lcufft -lcublas -lcusparse -lcusolver -lcurand -lcuda -lX11 -ldl -lmpi_gtl_cuda -lgfortran -lm -lsci_gnu_82_mpi -lsci_gnu_82 -lpals -lpmi -lpmi2 -lmpifort_gnu_91 -lmpi_gnu_91 -ldsmml -lgfortran -lquadmath -lpthread -lm -lgcc_s -lstdc++ -lquadmath
-----------------------------------------

bfgs_profiling PETSc commit: v3.19.5-1158-g652d2d27ee7
